<html>
<head>
	<title>This is clean code </title>
</head>
<body>
	<!-- 1. -->
	<p id="intro">New items on the menu today include 
		<strong>New items on the menu today include</strong>
	</p>
	<p id="intro">
		The caramel apple cider is delicious
	</p>
	
	
	<!-- 2. -->
	<h1>
		<strong> Welcome Back </strong>
	</h1>
	<p>t has been a while. What have you been up to lately?	</p>
	<!-- 3. -->
	<!Doctype html>
	
	<head>
		<title> Hello World</title>
	</head>
	<body>
		<h1>Hello World</h1>
		<p>This is a web page.</p>
	</body>
	</html>
	<!-- 4. -->
	<aside>
		<h3>Chicago </h3>
		<h3>Chicago</h3>
    		<h5 hidden>City in Illinois</h5>
    		<img src="chicago.jpg" alt="Chicago, the third most populous city in the United States">
    		<ul>
        		<li>234 square miles</li>
        		<li>2.715 million residents</li>
    		</ul>
	</aside>
	<!-- 5. -->
	<p class="alert">Error! Please try again.</p>
	<!-- 6. -->
	<img src="puppy.jpg" alt="A buitiful, two year old hound mix puppy">

	<!-- 7. -->
	<p class="alert-success">Thank you!</p>
	<!-- 8. -->
	<div class="container">
    	<article>
        	<h1>Headlines Across the World</h1>
    	</article>
	</div>
	<!-- 9. -->
	 /*  */
	 header { ... }.
	 /*  */
	 article { ... }
	 /*  */
	 .btn { ... }
	<!-- 10. -->
	
</body>
</html>